<?xml version="1.0" encoding="UTF-8" standalone="no"?>
<!-- Created with Inkscape (http://www.inkscape.org/) -->

<svg
   width="36"
   height="36"
   viewBox="0 0 9.5249998 9.5249999"
   version="1.1"
   id="svg5"
   xml:space="preserve"
   xmlns="http://www.w3.org/2000/svg"
   xmlns:svg="http://www.w3.org/2000/svg"><defs
     id="defs2" /><g
     id="layer1"
     style="display:inline"><rect
       style="fill:#ffffff;stroke:none;stroke-width:2.11667;paint-order:markers stroke fill"
       id="rect736"
       width="1.1104115"
       height="2.434015"
       x="1.7397445"
       y="3.5454924" /><path
       id="path790"
       style="display:inline;fill:#ffffff;stroke-width:2.69387;paint-order:markers stroke fill"
       d="M 5.7442353,1.456216 1.7474249,3.7640855 v 1.3880289 l 3.9968104,2.3078694 z"
       transform="matrix(0.61737969,0,0,1,1.2161257,0.3044)" /></g></svg>
